<svg width="160px"  height="160px"  xmlns="http://www.w3.org/2000/svg" viewBox="0 0 100 100" preserveAspectRatio="xMidYMid" class="lds-rolling">
    <circle cx="50" cy="50" fill="none" ng-attr-stroke="{{config.color}}" ng-attr-stroke-width="{{config.width}}" ng-attr-r="{{config.radius}}" ng-attr-stroke-dasharray="{{config.dasharray}}" stroke="#BDB5B2" stroke-width="8" r="30" stroke-dasharray="141.37166941154067 49.12388980384689" transform="rotate(102 50 50)">
      <animateTransform attributeName="transform" type="rotate" calcMode="linear" values="0 50 50;360 50 50" keyTimes="0;1" dur="1s" begin="0s" repeatCount="indefinite"></animateTransform>
    </circle>
  </svg>
